Introduction to Tidy Transcriptomics • bioceurope2020tidytranscriptomics
…
The airway data is stored as a Bioconductor RangedSummarizedExperiment object. We will convert this object into a tidybulk tibble. A tibble is the tidyverse table format.

In this workshop we will be using the tidyverse pipe %>%. This ‘pipes’ the output from the command on the left into the command on the right/below. Using the pipe is not essential but it reduces the amount of code we need to write when we have multiple steps (as we’ll see later). It also can make the steps clearer and easier to see. For more details on the pipe see here.

# load airway RNA sequencing data
data(airway)

# convert to tidybulk tibble
counts_airway <-
  airway %>%
  tidybulk()

# take a look
counts_airway
#> # A tibble: 512,816 x 12
#>    feature sample counts SampleName cell  dex   albut Run   avgLength Experiment
#>    <fct>   <fct>   <int> <fct>      <fct> <fct> <fct> <fct>     <int> <fct>     
#>  1 ENSG00… SRR10…    679 GSM1275862 N613… untrt untrt SRR1…       126 SRX384345 
#>  2 ENSG00… SRR10…      0 GSM1275862 N613… untrt untrt SRR1…       126 SRX384345 
#>  3 ENSG00… SRR10…    467 GSM1275862 N613… untrt untrt SRR1…       126 SRX384345 
#>  4 ENSG00… SRR10…    260 GSM1275862 N613… untrt untrt SRR1…       126 SRX384345 
#>  5 ENSG00… SRR10…     60 GSM1275862 N613… untrt untrt SRR1…       126 SRX384345 
#>  6 ENSG00… SRR10…      0 GSM1275862 N613… untrt untrt SRR1…       126 SRX384345 
#>  7 ENSG00… SRR10…   3251 GSM1275862 N613… untrt untrt SRR1…       126 SRX384345 
#>  8 ENSG00… SRR10…   1433 GSM1275862 N613… untrt untrt SRR1…       126 SRX384345 
#>  9 ENSG00… SRR10…    519 GSM1275862 N613… untrt untrt SRR1…       126 SRX384345 
#> 10 ENSG00… SRR10…    394 GSM1275862 N613… untrt untrt SRR1…       126 SRX384345 
#> # … with 512,806 more rows, and 2 more variables: Sample <fct>, BioSample <fct>
…
counts_tt <-
  airway %>%
  tidybulk() %>%
  mutate(sample = str_remove(sample, "SRR1039")) %>%
  mutate(symbol = AnnotationDbi::mapIds(org.Hs.eg.db::org.Hs.eg.db,
    keys = as.character(feature),
    keytype = "ENSEMBL",
    column = "SYMBOL",
    multiVals = "first"
  ))
#> 
#> 'select()' returned 1:many mapping between keys and columns
# take a look
counts_tt
#> # A tibble: 512,816 x 13
#>    feature sample counts SampleName cell  dex   albut Run   avgLength Experiment
#>    <fct>   <chr>   <int> <fct>      <fct> <fct> <fct> <fct>     <int> <fct>     
#>  1 ENSG00… 508       679 GSM1275862 N613… untrt untrt SRR1…       126 SRX384345 
#>  2 ENSG00… 508         0 GSM1275862 N613… untrt untrt SRR1…       126 SRX384345 
#>  3 ENSG00… 508       467 GSM1275862 N613… untrt untrt SRR1…       126 SRX384345 
#>  4 ENSG00… 508       260 GSM1275862 N613… untrt untrt SRR1…       126 SRX384345 
#>  5 ENSG00… 508        60 GSM1275862 N613… untrt untrt SRR1…       126 SRX384345 
#>  6 ENSG00… 508         0 GSM1275862 N613… untrt untrt SRR1…       126 SRX384345 
#>  7 ENSG00… 508      3251 GSM1275862 N613… untrt untrt SRR1…       126 SRX384345 
#>  8 ENSG00… 508      1433 GSM1275862 N613… untrt untrt SRR1…       126 SRX384345 
#>  9 ENSG00… 508       519 GSM1275862 N613… untrt untrt SRR1…       126 SRX384345 
#> 10 ENSG00… 508       394 GSM1275862 N613… untrt untrt SRR1…       126 SRX384345 
#> # … with 512,806 more rows, and 3 more variables: Sample <fct>,
#> #   BioSample <fct>, symbol <chr>

From this tidybulk tibble, we can perform differential expression analysis with the tidybulk package.

Filtering lowly transcribed genes

Genes with very low counts across all libraries provide little evidence for differential expression and they can interfere with some of the statistical approximations that are used later in the pipeline. They also add to the multiple testing burden when estimating false discovery rates, reducing power to detect differentially expressed genes. These genes should be filtered out prior to further analysis.

We can perform the filtering using tidybulk keep_abundant or identify_abundant. These functions can use the edgeR filterByExpr function described in (Law et al. 2016) to automatically identify the genes with adequate abundance for differential expression testing. By default, this will keep genes with ~10 counts in a minimum number of samples, the number of the samples in the smallest group. In this dataset the smallest group size is four (as we have four dex-treated samples versus four untreated). Alternatively, we could use identify_abundant to identify which genes are abundant or not (TRUE/FALSE), rather than just keeping the abundant ones.

# Filtering counts
counts_filtered <- counts_tt %>% keep_abundant(factor_of_interest = dex)

# take a look
counts_filtered
#> # A tibble: 127,408 x 14
#>    feature sample counts SampleName cell  dex   albut Run   avgLength Experiment
#>    <fct>   <chr>   <int> <fct>      <fct> <fct> <fct> <fct>     <int> <fct>     
#>  1 ENSG00… 508       679 GSM1275862 N613… untrt untrt SRR1…       126 SRX384345 
#>  2 ENSG00… 508       467 GSM1275862 N613… untrt untrt SRR1…       126 SRX384345 
#>  3 ENSG00… 508       260 GSM1275862 N613… untrt untrt SRR1…       126 SRX384345 
#>  4 ENSG00… 508        60 GSM1275862 N613… untrt untrt SRR1…       126 SRX384345 
#>  5 ENSG00… 508      3251 GSM1275862 N613… untrt untrt SRR1…       126 SRX384345 
#>  6 ENSG00… 508      1433 GSM1275862 N613… untrt untrt SRR1…       126 SRX384345 
#>  7 ENSG00… 508       519 GSM1275862 N613… untrt untrt SRR1…       126 SRX384345 
#>  8 ENSG00… 508       394 GSM1275862 N613… untrt untrt SRR1…       126 SRX384345 
#>  9 ENSG00… 508       172 GSM1275862 N613… untrt untrt SRR1…       126 SRX384345 
#> 10 ENSG00… 508      2112 GSM1275862 N613… untrt untrt SRR1…       126 SRX384345 
#> # … with 127,398 more rows, and 4 more variables: Sample <fct>,
#> #   BioSample <fct>, symbol <chr>, .abundant <lgl>

After running keep_abundant we have a column called .abundant containing TRUE (identify_abundant would have TRUE/FALSE).

Scaling counts to normalise

Scaling of counts, normalisation, is performed to eliminate uninteresting differences between samples due to sequencing depth or composition. A more detailed explanation can be found here. In the tidybulk package the function scale_abundance generates scaled counts, with scaling factors calculated on abundant (filtered) transcripts and applied to all transcripts. We can choose from different normalisation methods. Here we will use the default, edgeR’s trimmed mean of M values (TMM), (Robinson and Oshlack 2010). TMM normalisation (and most scaling normalisation methods) scale relative to one sample.

# Scaling counts
counts_scaled <- counts_filtered %>% scale_abundance()

# take a look
counts_scaled
#> # A tibble: 127,408 x 17
#>    feature sample counts SampleName cell  dex   albut Run   avgLength Experiment
#>    <fct>   <chr>   <int> <fct>      <fct> <fct> <fct> <fct>     <int> <fct>     
#>  1 ENSG00… 508       679 GSM1275862 N613… untrt untrt SRR1…       126 SRX384345 
#>  2 ENSG00… 508       467 GSM1275862 N613… untrt untrt SRR1…       126 SRX384345 
#>  3 ENSG00… 508       260 GSM1275862 N613… untrt untrt SRR1…       126 SRX384345 
#>  4 ENSG00… 508        60 GSM1275862 N613… untrt untrt SRR1…       126 SRX384345 
#>  5 ENSG00… 508      3251 GSM1275862 N613… untrt untrt SRR1…       126 SRX384345 
#>  6 ENSG00… 508      1433 GSM1275862 N613… untrt untrt SRR1…       126 SRX384345 
#>  7 ENSG00… 508       519 GSM1275862 N613… untrt untrt SRR1…       126 SRX384345 
#>  8 ENSG00… 508       394 GSM1275862 N613… untrt untrt SRR1…       126 SRX384345 
#>  9 ENSG00… 508       172 GSM1275862 N613… untrt untrt SRR1…       126 SRX384345 
#> 10 ENSG00… 508      2112 GSM1275862 N613… untrt untrt SRR1…       126 SRX384345 
#> # … with 127,398 more rows, and 7 more variables: Sample <fct>,
#> #   BioSample <fct>, symbol <chr>, .abundant <lgl>, TMM <dbl>,
#> #   multiplier <dbl>, counts_scaled <dbl>
…
Poll: What fraction of variance is explained by PC3?
      See ?reduce_dimensions for how to get additional dimensions.

This joins the result to the counts object.

# Take a look
counts_scal_PCA
#> # A tibble: 127,408 x 19
#>    feature sample counts SampleName cell  dex   albut Run   avgLength Experiment
#>    <fct>   <chr>   <int> <fct>      <fct> <fct> <fct> <fct>     <int> <fct>     
#>  1 ENSG00… 508       679 GSM1275862 N613… untrt untrt SRR1…       126 SRX384345 
#>  2 ENSG00… 508       467 GSM1275862 N613… untrt untrt SRR1…       126 SRX384345 
#>  3 ENSG00… 508       260 GSM1275862 N613… untrt untrt SRR1…       126 SRX384345 
#>  4 ENSG00… 508        60 GSM1275862 N613… untrt untrt SRR1…       126 SRX384345 
#>  5 ENSG00… 508      3251 GSM1275862 N613… untrt untrt SRR1…       126 SRX384345 
#>  6 ENSG00… 508      1433 GSM1275862 N613… untrt untrt SRR1…       126 SRX384345 
#>  7 ENSG00… 508       519 GSM1275862 N613… untrt untrt SRR1…       126 SRX384345 
#>  8 ENSG00… 508       394 GSM1275862 N613… untrt untrt SRR1…       126 SRX384345 
#>  9 ENSG00… 508       172 GSM1275862 N613… untrt untrt SRR1…       126 SRX384345 
#> 10 ENSG00… 508      2112 GSM1275862 N613… untrt untrt SRR1…       126 SRX384345 
#> # … with 127,398 more rows, and 9 more variables: Sample <fct>,
#> #   BioSample <fct>, symbol <chr>, .abundant <lgl>, TMM <dbl>,
#> #   multiplier <dbl>, counts_scaled <dbl>, PC1 <dbl>, PC2 <dbl>
…
  # DESeq2
  test_differential_abundance(
    ~ dex + cell,
    method = "deseq2",
    prefix = "deseq2_"
  )

# take a look

de_all
#> # A tibble: 127,408 x 41
#>    feature sample counts SampleName cell  dex   albut Run   avgLength Experiment
#>    <chr>   <chr>   <int> <fct>      <fct> <fct> <fct> <fct>     <int> <fct>     
#>  1 ENSG00… 508       679 GSM1275862 N613… untrt untrt SRR1…       126 SRX384345 
#>  2 ENSG00… 508       467 GSM1275862 N613… untrt untrt SRR1…       126 SRX384345 
#>  3 ENSG00… 508       260 GSM1275862 N613… untrt untrt SRR1…       126 SRX384345 
#>  4 ENSG00… 508        60 GSM1275862 N613… untrt untrt SRR1…       126 SRX384345 
#>  5 ENSG00… 508      3251 GSM1275862 N613… untrt untrt SRR1…       126 SRX384345 
#>  6 ENSG00… 508      1433 GSM1275862 N613… untrt untrt SRR1…       126 SRX384345 
#>  7 ENSG00… 508       519 GSM1275862 N613… untrt untrt SRR1…       126 SRX384345 
#>  8 ENSG00… 508       394 GSM1275862 N613… untrt untrt SRR1…       126 SRX384345 
#>  9 ENSG00… 508       172 GSM1275862 N613… untrt untrt SRR1…       126 SRX384345 
#> 10 ENSG00… 508      2112 GSM1275862 N613… untrt untrt SRR1…       126 SRX384345 
#> # … with 127,398 more rows, and 31 more variables: Sample <fct>,
#> #   BioSample <fct>, symbol <chr>, .abundant <lgl>, TMM <dbl>,
#> #   multiplier <dbl>, counts_scaled <dbl>, PC1 <dbl>, PC2 <dbl>,
#> #   edgerQLT_logFC <dbl>, edgerQLT_logCPM <dbl>, edgerQLT_F <dbl>,
#> #   edgerQLT_PValue <dbl>, edgerQLT_FDR <dbl>, edgerLR_logFC <dbl>,
#> #   edgerLR_logCPM <dbl>, edgerLR_LR <dbl>, edgerLR_PValue <dbl>,
#> #   edgerLR_FDR <dbl>, voom_logFC <dbl>, voom_AveExpr <dbl>, voom_t <dbl>,
#> #   voom_P.Value <dbl>, voom_adj.P.Val <dbl>, voom_B <dbl>,
#> #   deseq2_baseMean <dbl>, deseq2_log2FoldChange <dbl>, deseq2_lfcSE <dbl>,
…
That will add a column called gate, specifying which gate the points (transcripts) are in.

#> Warning: `gate()` is deprecated as of tidygate 0.3.0.
#> Please use `gate_chr()` instead.
#> This warning is displayed once every 8 hours.
#> Call `lifecycle::last_warnings()` to see where this warning was generated.
#> # A tibble: 127,408 x 42
#>    feature sample counts SampleName cell  dex   albut Run   avgLength Experiment
#>    <chr>   <chr>   <int> <fct>      <fct> <fct> <fct> <fct>     <int> <fct>     
#>  1 ENSG00… 508       679 GSM1275862 N613… untrt untrt SRR1…       126 SRX384345 
#>  2 ENSG00… 508       467 GSM1275862 N613… untrt untrt SRR1…       126 SRX384345 
#>  3 ENSG00… 508       260 GSM1275862 N613… untrt untrt SRR1…       126 SRX384345 
#>  4 ENSG00… 508        60 GSM1275862 N613… untrt untrt SRR1…       126 SRX384345 
#>  5 ENSG00… 508      3251 GSM1275862 N613… untrt untrt SRR1…       126 SRX384345 
#>  6 ENSG00… 508      1433 GSM1275862 N613… untrt untrt SRR1…       126 SRX384345 
#>  7 ENSG00… 508       519 GSM1275862 N613… untrt untrt SRR1…       126 SRX384345 
#>  8 ENSG00… 508       394 GSM1275862 N613… untrt untrt SRR1…       126 SRX384345 
#>  9 ENSG00… 508       172 GSM1275862 N613… untrt untrt SRR1…       126 SRX384345 
#> 10 ENSG00… 508      2112 GSM1275862 N613… untrt untrt SRR1…       126 SRX384345 
#> # … with 127,398 more rows, and 32 more variables: Sample <fct>,
#> #   BioSample <fct>, symbol <chr>, .abundant <lgl>, TMM <dbl>,
#> #   multiplier <dbl>, counts_scaled <dbl>, PC1 <dbl>, PC2 <dbl>,
#> #   edgerQLT_logFC <dbl>, edgerQLT_logCPM <dbl>, edgerQLT_F <dbl>,
#> #   edgerQLT_PValue <dbl>, edgerQLT_FDR <dbl>, edgerLR_logFC <dbl>,
#> #   edgerLR_logCPM <dbl>, edgerLR_LR <dbl>, edgerLR_PValue <dbl>,
#> #   edgerLR_FDR <dbl>, voom_logFC <dbl>, voom_AveExpr <dbl>, voom_t <dbl>,
#> #   voom_P.Value <dbl>, voom_adj.P.Val <dbl>, voom_B <dbl>,
#> #   deseq2_baseMean <dbl>, deseq2_log2FoldChange <dbl>, deseq2_lfcSE <dbl>,
…
For example, with action="add" (default), we can add the PCA dimensions to the original data set. So we still have a row for every transcript in every sample.

counts_scaled %>%
  reduce_dimensions(
  method = "PCA",
  action = "add")
#> Getting the 500 most variable genes
#> Fraction of variance explained by the selected principal components
#> # A tibble: 2 x 2
#>   `Fraction of variance`    PC
#>                    <dbl> <int>
#> 1                  0.353     1
#> 2                  0.312     2
#> tidybulk says: to access the raw results do `attr(..., "internals")$PCA`
#> # A tibble: 127,408 x 19
#>    feature sample counts SampleName cell  dex   albut Run   avgLength Experiment
#>    <fct>   <chr>   <int> <fct>      <fct> <fct> <fct> <fct>     <int> <fct>     
#>  1 ENSG00… 508       679 GSM1275862 N613… untrt untrt SRR1…       126 SRX384345 
#>  2 ENSG00… 508       467 GSM1275862 N613… untrt untrt SRR1…       126 SRX384345 
#>  3 ENSG00… 508       260 GSM1275862 N613… untrt untrt SRR1…       126 SRX384345 
#>  4 ENSG00… 508        60 GSM1275862 N613… untrt untrt SRR1…       126 SRX384345 
#>  5 ENSG00… 508      3251 GSM1275862 N613… untrt untrt SRR1…       126 SRX384345 
#>  6 ENSG00… 508      1433 GSM1275862 N613… untrt untrt SRR1…       126 SRX384345 
#>  7 ENSG00… 508       519 GSM1275862 N613… untrt untrt SRR1…       126 SRX384345 
#>  8 ENSG00… 508       394 GSM1275862 N613… untrt untrt SRR1…       126 SRX384345 
#>  9 ENSG00… 508       172 GSM1275862 N613… untrt untrt SRR1…       126 SRX384345 
#> 10 ENSG00… 508      2112 GSM1275862 N613… untrt untrt SRR1…       126 SRX384345 
#> # … with 127,398 more rows, and 9 more variables: Sample <fct>,
#> #   BioSample <fct>, symbol <chr>, .abundant <lgl>, TMM <dbl>,
#> #   multiplier <dbl>, counts_scaled <dbl>, PC1 <dbl>, PC2 <dbl>
…
Cell type composition analysis

If we are sequencing tissue samples, we may want to know what cell types are present and if there are differences in expression between them. tidybulk has a deconvolve_cellularity function that can help us do this.

For this example we will use a subset of the breast cancer dataset from The Cancer Genome Atlas (TCGA).

BRCA_tidy <-
  bioceurope2020tidytranscriptomics::BRCA %>%
  tidybulk(patient, transcript, count)

BRCA_tidy
#> # A tibble: 198,374 x 5
#>    patient      transcript count  time event_occurred
#>    <fct>        <fct>      <int> <dbl>          <int>
#>  1 TCGA-C8-A275 C1orf112    1571     1              0
#>  2 TCGA-C8-A275 FGR         1873     1              0
#>  3 TCGA-C8-A275 FUCA2       3770     1              0
#>  4 TCGA-C8-A275 GCLC        2738     1              0
#>  5 TCGA-C8-A275 LAS1L       3175     1              0
#>  6 TCGA-C8-A275 ENPP4       1340     1              0
#>  7 TCGA-C8-A275 SEMA3F      5479     1              0
#>  8 TCGA-C8-A275 RAD52        472     1              0
#>  9 TCGA-C8-A275 BAD         1761     1              0
#> 10 TCGA-C8-A275 CD99       14697     1              0
#> # … with 198,364 more rows

With tidybulk, we can easily infer the proportions of cell types within a tissue using one of several published methods (Cibersort (Newman et al. 2015), EPIC (Racle et al. 2017) and llsr (Abbas et al. 2009)). Here we will use Cibersort which provides a default signature called LM22 to define the cell types. LM22 contains 547 genes that identify 22 human immune cell types.

BRCA_cell_type <-
  BRCA_tidy %>%
  deconvolve_cellularity(action = "get")

BRCA_cell_type
#> # A tibble: 22 x 25
#>    patient  time event_occurred `cibersort: B c… `cibersort: B c…
#>    <chr>   <dbl>          <int>            <dbl>            <dbl>
#>  1 TCGA-C…     1              0          0.0325            0     
#>  2 TCGA-A…     1              0          0.0170            0     
#>  3 TCGA-A…     5              0          0.00127           0     
#>  4 TCGA-C…     5              0          0.0372            0     
#>  5 TCGA-P…     5              0          0.00453           0     
#>  6 TCGA-B…  6292              0          0.144             0     
#>  7 TCGA-B…  7106              0          0.0632            0     
#>  8 TCGA-B…  7777              0          0                 0.0142
#>  9 TCGA-B…  8008              0          0.203             0     
#> 10 TCGA-B…  8391              0          0.147             0     
#> # … with 12 more rows, and 20 more variables: `cibersort: Plasma cells` <dbl>,
#> #   `cibersort: T cells CD8` <dbl>, `cibersort: T cells CD4 naive` <dbl>,
#> #   `cibersort: T cells CD4 memory resting` <dbl>, `cibersort: T cells CD4
#> #   memory activated` <dbl>, `cibersort: T cells follicular helper` <dbl>,
#> #   `cibersort: T cells regulatory (Tregs)` <dbl>, `cibersort: T cells gamma
#> #   delta` <dbl>, `cibersort: NK cells resting` <dbl>, `cibersort: NK cells
#> #   activated` <dbl>, `cibersort: Monocytes` <dbl>, `cibersort: Macrophages
#> #   M0` <dbl>, `cibersort: Macrophages M1` <dbl>, `cibersort: Macrophages
#> #   M2` <dbl>, `cibersort: Dendritic cells resting` <dbl>, `cibersort:
…
Cell type proportions are added to the tibble as new columns. The prefix makes it easy to reshape the data frame if needed, for visualisation or further analyses.

BRCA_cell_type_long <-
  BRCA_cell_type %>%

  # Reshape
  pivot_longer(
    contains("cibersort"),
    names_prefix = "cibersort: ",
    names_to = "cell_type",
    values_to = "proportion"
  )

BRCA_cell_type_long
#> # A tibble: 484 x 5
#>    patient       time event_occurred cell_type                    proportion
#>    <chr>        <dbl>          <int> <chr>                             <dbl>
#>  1 TCGA-C8-A275     1              0 B cells naive                    0.0325
#>  2 TCGA-C8-A275     1              0 B cells memory                   0     
#>  3 TCGA-C8-A275     1              0 Plasma cells                     0.0127
#>  4 TCGA-C8-A275     1              0 T cells CD8                      0     
#>  5 TCGA-C8-A275     1              0 T cells CD4 naive                0.0507
#>  6 TCGA-C8-A275     1              0 T cells CD4 memory resting       0.0299
#>  7 TCGA-C8-A275     1              0 T cells CD4 memory activated     0.0332
#>  8 TCGA-C8-A275     1              0 T cells follicular helper        0     
#>  9 TCGA-C8-A275     1              0 T cells regulatory (Tregs)       0.0326
#> 10 TCGA-C8-A275     1              0 T cells gamma delta              0.0247
#> # … with 474 more rows
…
